{
    "count": 854397,
    "next": "https://api.rawg.io/api/games?key=1ae731eafea74e33907d89607c9483cb&page=2&page_size=50",
    "previous": null,
    "results": [
        {
            "id": 3498,
            "slug": "grand-theft-auto-v",
            "name": "Grand Theft Auto V",
            "released": "2013-09-17",
            "tba": false,
            "background_image": "https://media.rawg.io/media/games/20a/20aa03a10cda45239fe22d035c0ebe64.jpg",
            "rating": 4.47,
            "rating_top": 5,
            "ratings": [
                {
                    "id": 5,
                    "title": "exceptional",
                    "count": 3922,
                    "percent": 59.05
                },
                {
                    "id": 4,
                    "title": "recommended",
                    "count": 2178,
                    "percent": 32.79
                },
                {
                    "id": 3,
                    "title": "meh",
                    "count": 422,
                    "percent": 6.35
                },
                {
                    "id": 1,
                    "title": "skip",
                    "count": 120,
                    "percent": 1.81
                }
            ],
            "ratings_count": 6545,
            "reviews_text_count": 57,
            "added": 20067,
            "added_by_status": {
                "yet": 516,
                "owned": 11542,
                "beaten": 5644,
                "toplay": 596,
                "dropped": 1060,
                "playing": 709
            },
            "metacritic": 92,
            "playtime": 74,
            "suggestions_count": 422,
            "updated": "2023-09-29T20:53:32",
            "user_game": null,
            "reviews_count": 6642,
            "saturated_color": "0f0f0f",
            "dominant_color": "0f0f0f",
            "platforms": [
                {
                    "platform": {
                        "id": 187,
                        "name": "PlayStation 5",
                        "slug": "playstation5",
                        "image": null,
                        "year_end": null,
                        "year_start": 2020,
                        "games_count": 939,
                        "image_background": "https://media.rawg.io/media/games/840/8408ad3811289a6a5830cae60fb0b62a.jpg"
                    },
                    "released_at": "2013-09-17",
                    "requirements_en": null,
                    "requirements_ru": null
                },
                {
                    "platform": {
                        "id": 186,
                        "name": "Xbox Series S/X",
                        "slug": "xbox-series-x",
                        "image": null,
                        "year_end": null,
                        "year_start": 2020,
                        "games_count": 807,
                        "image_background": "https://media.rawg.io/media/games/b34/b3419c2706f8f8dbe40d08e23642ad06.jpg"
                    },
                    "released_at": "2013-09-17",
                    "requirements_en": null,
                    "requirements_ru": null
                },
                {
                    "platform": {
                        "id": 4,
                        "name": "PC",
                        "slug": "pc",
                        "image": null,
                        "year_end": null,
                        "year_start": null,
                        "games_count": 516910,
                        "image_background": "https://media.rawg.io/media/games/26d/26d4437715bee60138dab4a7c8c59c92.jpg"
                    },
                    "released_at": "2013-09-17",
                    "requirements_en": {
                        "minimum": "Minimum:OS: Windows 10 64 Bit, Windows 8.1 64 Bit, Windows 8 64 Bit, Windows 7 64 Bit Service Pack 1, Windows Vista 64 Bit Service Pack 2* (*NVIDIA video card recommended if running Vista OS)Processor: Intel Core 2 Quad CPU Q6600 @ 2.40GHz (4 CPUs) / AMD Phenom 9850 Quad-Core Processor (4 CPUs) @ 2.5GHzMemory: 4 GB RAMGraphics: NVIDIA 9800 GT 1GB / AMD HD 4870 1GB (DX 10, 10.1, 11)Storage: 72 GB available spaceSound Card: 100% DirectX 10 compatibleAdditional Notes: Over time downloadable content and programming changes will change the system requirements for this game.  Please refer to your hardware manufacturer and www.rockstargames.com/support for current compatibility information. Some system components such as mobile chipsets, integrated, and AGP graphics cards may be incompatible. Unlisted specifications may not be supported by publisher.     Other requirements:  Installation and online play requires log-in to Rockstar Games Social Club (13+) network; internet connection required for activation, online play, and periodic entitlement verification; software installations required including Rockstar Games Social Club platform, DirectX , Chromium, and Microsoft Visual C++ 2008 sp1 Redistributable Package, and authentication software that recognizes certain hardware attributes for entitlement, digital rights management, system, and other support purposes.     SINGLE USE SERIAL CODE REGISTRATION VIA INTERNET REQUIRED; REGISTRATION IS LIMITED TO ONE ROCKSTAR GAMES SOCIAL CLUB ACCOUNT (13+) PER SERIAL CODE; ONLY ONE PC LOG-IN ALLOWED PER SOCIAL CLUB ACCOUNT AT ANY TIME; SERIAL CODE(S) ARE NON-TRANSFERABLE ONCE USED; SOCIAL CLUB ACCOUNTS ARE NON-TRANSFERABLE.  Partner Requirements:  Please check the terms of service of this site before purchasing this software.",
                        "recommended": "Recommended:OS: Windows 10 64 Bit, Windows 8.1 64 Bit, Windows 8 64 Bit, Windows 7 64 Bit Service Pack 1Processor: Intel Core i5 3470 @ 3.2GHz (4 CPUs) / AMD X8 FX-8350 @ 4GHz (8 CPUs)Memory: 8 GB RAMGraphics: NVIDIA GTX 660 2GB / AMD HD 7870 2GBStorage: 72 GB available spaceSound Card: 100% DirectX 10 compatibleAdditional Notes:"
                    },
                    "requirements_ru": null
                },
                {
                    "platform": {
                        "id": 18,
                        "name": "PlayStation 4",
                        "slug": "playstation4",
                        "image": null,
                        "year_end": null,
                        "year_start": null,
                        "games_count": 6717,
                        "image_background": "https://media.rawg.io/media/games/b7d/b7d3f1715fa8381a4e780173a197a615.jpg"
                    },
                    "released_at": "2013-09-17",
                    "requirements_en": null,
                    "requirements_ru": null
                },
                {
                    "platform": {
                        "id": 16,
                        "name": "PlayStation 3",
                        "slug": "playstation3",
                        "image": null,
                        "year_end": null,
                        "year_start": null,
                        "games_count": 3163,
                        "image_background": "https://media.rawg.io/media/games/e2d/e2d3f396b16dded0f841c17c9799a882.jpg"
                    },
                    "released_at": "2013-09-17",
                    "requirements_en": null,
                    "requirements_ru": null
                },
                {
                    "platform": {
                        "id": 14,
                        "name": "Xbox 360",
                        "slug": "xbox360",
                        "image": null,
                        "year_end": null,
                        "year_start": null,
                        "games_count": 2786,
                        "image_background": "https://media.rawg.io/media/games/4a0/4a0a1316102366260e6f38fd2a9cfdce.jpg"
                    },
                    "released_at": "2013-09-17",
                    "requirements_en": null,
                    "requirements_ru": null
                },
                {
                    "platform": {
                        "id": 1,
                        "name": "Xbox One",
                        "slug": "xbox-one",
                        "image": null,
                        "year_end": null,
                        "year_start": null,
                        "games_count": 5550,
                        "image_background": "https://media.rawg.io/media/games/310/3106b0e012271c5ffb16497b070be739.jpg"
                    },
                    "released_at": "2013-09-17",
                    "requirements_en": null,
                    "requirements_ru": null
                }
            ],
            "parent_platforms": [
                {
                    "platform": {
                        "id": 1,
                        "name": "PC",
                        "slug": "pc"
                    }
                },
                {
                    "platform": {
                        "id": 2,
                        "name": "PlayStation",
                        "slug": "playstation"
                    }
                },
                {
                    "platform": {
                        "id": 3,
                        "name": "Xbox",
                        "slug": "xbox"
                    }
                }
            ],
            "genres": [
                {
                    "id": 4,
                    "name": "Action",
                    "slug": "action",
                    "games_count": 174507,
                    "image_background": "https://media.rawg.io/media/games/b7d/b7d3f1715fa8381a4e780173a197a615.jpg"
                },
                {
                    "id": 3,
                    "name": "Adventure",
                    "slug": "adventure",
                    "games_count": 134232,
                    "image_background": "https://media.rawg.io/media/games/26d/26d4437715bee60138dab4a7c8c59c92.jpg"
                }
            ],
            "stores": [
                {
                    "id": 290375,
                    "store": {
                        "id": 3,
                        "name": "PlayStation Store",
                        "slug": "playstation-store",
                        "domain": "store.playstation.com",
                        "games_count": 7842,
                        "image_background": "https://media.rawg.io/media/games/310/3106b0e012271c5ffb16497b070be739.jpg"
                    }
                },
                {
                    "id": 438095,
                    "store": {
                        "id": 11,
                        "name": "Epic Games",
                        "slug": "epic-games",
                        "domain": "epicgames.com",
                        "games_count": 1269,
                        "image_background": "https://media.rawg.io/media/games/511/5118aff5091cb3efec399c808f8c598f.jpg"
                    }
                },
                {
                    "id": 290376,
                    "store": {
                        "id": 1,
                        "name": "Steam",
                        "slug": "steam",
                        "domain": "store.steampowered.com",
                        "games_count": 79741,
                        "image_background": "https://media.rawg.io/media/games/4be/4be6a6ad0364751a96229c56bf69be59.jpg"
                    }
                },
                {
                    "id": 290377,
                    "store": {
                        "id": 7,
                        "name": "Xbox 360 Store",
                        "slug": "xbox360",
                        "domain": "marketplace.xbox.com",
                        "games_count": 1912,
                        "image_background": "https://media.rawg.io/media/games/b45/b45575f34285f2c4479c9a5f719d972e.jpg"
                    }
                },
                {
                    "id": 290378,
                    "store": {
                        "id": 2,
                        "name": "Xbox Store",
                        "slug": "xbox-store",
                        "domain": "microsoft.com",
                        "games_count": 4770,
                        "image_background": "https://media.rawg.io/media/games/8d6/8d69eb6c32ed6acfd75f82d532144993.jpg"
                    }
                }
            ],
            "clip": null,
            "tags": [
                {
                    "id": 31,
                    "name": "Singleplayer",
                    "slug": "singleplayer",
                    "language": "eng",
                    "games_count": 209335,
                    "image_background": "https://media.rawg.io/media/games/942/9424d6bb763dc38d9378b488603c87fa.jpg"
                },
                {
                    "id": 40847,
                    "name": "Steam Achievements",
                    "slug": "steam-achievements",
                    "language": "eng",
                    "games_count": 31994,
                    "image_background": "https://media.rawg.io/media/games/46d/46d98e6910fbc0706e2948a7cc9b10c5.jpg"
                },
                {
                    "id": 7,
                    "name": "Multiplayer",
                    "slug": "multiplayer",
                    "language": "eng",
                    "games_count": 35620,
                    "image_background": "https://media.rawg.io/media/games/021/021c4e21a1824d2526f925eff6324653.jpg"
                },
                {
                    "id": 40836,
                    "name": "Full controller support",
                    "slug": "full-controller-support",
                    "language": "eng",
                    "games_count": 15048,
                    "image_background": "https://media.rawg.io/media/games/562/562553814dd54e001a541e4ee83a591c.jpg"
                },
                {
                    "id": 13,
                    "name": "Atmospheric",
                    "slug": "atmospheric",
                    "language": "eng",
                    "games_count": 30258,
                    "image_background": "https://media.rawg.io/media/games/bc0/bc06a29ceac58652b684deefe7d56099.jpg"
                },
                {
                    "id": 42,
                    "name": "Great Soundtrack",
                    "slug": "great-soundtrack",
                    "language": "eng",
                    "games_count": 3249,
                    "image_background": "https://media.rawg.io/media/games/b7d/b7d3f1715fa8381a4e780173a197a615.jpg"
                },
                {
                    "id": 24,
                    "name": "RPG",
                    "slug": "rpg",
                    "language": "eng",
                    "games_count": 17995,
                    "image_background": "https://media.rawg.io/media/games/c24/c24ec439abf4a2e92f3429dfa83f7f94.jpg"
                },
                {
                    "id": 18,
                    "name": "Co-op",
                    "slug": "co-op",
                    "language": "eng",
                    "games_count": 10186,
                    "image_background": "https://media.rawg.io/media/games/2ba/2bac0e87cf45e5b508f227d281c9252a.jpg"
                },
                {
                    "id": 36,
                    "name": "Open World",
                    "slug": "open-world",
                    "language": "eng",
                    "games_count": 6516,
                    "image_background": "https://media.rawg.io/media/games/20a/20aa03a10cda45239fe22d035c0ebe64.jpg"
                },
                {
                    "id": 411,
                    "name": "cooperative",
                    "slug": "cooperative",
                    "language": "eng",
                    "games_count": 4262,
                    "image_background": "https://media.rawg.io/media/games/15c/15c95a4915f88a3e89c821526afe05fc.jpg"
                },
                {
                    "id": 8,
                    "name": "First-Person",
                    "slug": "first-person",
                    "language": "eng",
                    "games_count": 29193,
                    "image_background": "https://media.rawg.io/media/games/157/15742f2f67eacff546738e1ab5c19d20.jpg"
                },
                {
                    "id": 149,
                    "name": "Third Person",
                    "slug": "third-person",
                    "language": "eng",
                    "games_count": 9875,
                    "image_background": "https://media.rawg.io/media/games/951/951572a3dd1e42544bd39a5d5b42d234.jpg"
                },
                {
                    "id": 4,
                    "name": "Funny",
                    "slug": "funny",
                    "language": "eng",
                    "games_count": 22983,
                    "image_background": "https://media.rawg.io/media/games/c6b/c6bfece1daf8d06bc0a60632ac78e5bf.jpg"
                },
                {
                    "id": 37,
                    "name": "Sandbox",
                    "slug": "sandbox",
                    "language": "eng",
                    "games_count": 6128,
                    "image_background": "https://media.rawg.io/media/games/25c/25c4776ab5723d5d735d8bf617ca12d9.jpg"
                },
                {
                    "id": 123,
                    "name": "Comedy",
                    "slug": "comedy",
                    "language": "eng",
                    "games_count": 11209,
                    "image_background": "https://media.rawg.io/media/games/48c/48cb04ca483be865e3a83119c94e6097.jpg"
                },
                {
                    "id": 150,
                    "name": "Third-Person Shooter",
                    "slug": "third-person-shooter",
                    "language": "eng",
                    "games_count": 2991,
                    "image_background": "https://media.rawg.io/media/games/20a/20aa03a10cda45239fe22d035c0ebe64.jpg"
                },
                {
                    "id": 62,
                    "name": "Moddable",
                    "slug": "moddable",
                    "language": "eng",
                    "games_count": 805,
                    "image_background": "https://media.rawg.io/media/games/9af/9af24c1886e2c7b52a4a2c65aa874638.jpg"
                },
                {
                    "id": 144,
                    "name": "Crime",
                    "slug": "crime",
                    "language": "eng",
                    "games_count": 2609,
                    "image_background": "https://media.rawg.io/media/games/960/960b601d9541cec776c5fa42a00bf6c4.jpg"
                },
                {
                    "id": 62349,
                    "name": "vr mod",
                    "slug": "vr-mod",
                    "language": "eng",
                    "games_count": 17,
                    "image_background": "https://media.rawg.io/media/screenshots/1bb/1bb3f78f0fe43b5d5ca2f3da5b638840.jpg"
                }
            ],
            "esrb_rating": {
                "id": 4,
                "name": "Mature",
                "slug": "mature"
            },
            "short_screenshots": [
                {
                    "id": -1,
                    "image": "https://media.rawg.io/media/games/20a/20aa03a10cda45239fe22d035c0ebe64.jpg"
                },
                {
                    "id": 1827221,
                    "image": "https://media.rawg.io/media/screenshots/a7c/a7c43871a54bed6573a6a429451564ef.jpg"
                },
                {
                    "id": 1827222,
                    "image": "https://media.rawg.io/media/screenshots/cf4/cf4367daf6a1e33684bf19adb02d16d6.jpg"
                },
                {
                    "id": 1827223,
                    "image": "https://media.rawg.io/media/screenshots/f95/f9518b1d99210c0cae21fc09e95b4e31.jpg"
                },
                {
                    "id": 1827225,
                    "image": "https://media.rawg.io/media/screenshots/a5c/a5c95ea539c87d5f538763e16e18fb99.jpg"
                },
                {
                    "id": 1827226,
                    "image": "https://media.rawg.io/media/screenshots/a7e/a7e990bc574f4d34e03b5926361d1ee7.jpg"
                },
                {
                    "id": 1827227,
                    "image": "https://media.rawg.io/media/screenshots/592/592e2501d8734b802b2a34fee2df59fa.jpg"
                }
            ]
        }
    ]
}